
 _    _  ____  __    ___  _____  __  __  ____    ____  _____
( \/\/ )( ___)(  )  / __)(  _  )(  \/  )( ___)  (_  _)(  _  )
 )    (  )__)  )(__( (__  )(_)(  )    (  )__)     )(   )(_)(
(__/\__)(____)(____)\___)(_____)(_/\/\_)(____)   (__) (_____)

                                    ____  ____   ___    __
                                   (_  _)(  _ \ / __)  /__\
                                    _)(_  )   /( (__  /(__)\
                                   (____)(_)\_) \___)(__)(__)

 ____  _  _  ___  ____   __    __    __
(_  _)( \( )/ __)(_  _) /__\  (  )  (  )
 _)(_  )  ( \__ \  )(  /(__)\  )(__  )(__
(____)(_)\_)(___/ (__)(__)(__)(____)(____)

# To install irca, run the install script with the provided irca.tgz archive:
bash install-from-tarball.sh irca.tgz

 ___  ____   __    ____  ____
/ __)(_  _) /__\  (  _ \(_  _)
\__ \  )(  /(__)\  )   /  )(
(___/ (__)(__)(__)(_)\_) (__)

# To start irca, run the start script in ./irca:
bash start-irca.sh

 ___  ____  _____  ____
/ __)(_  _)(  _  )(  _ \
\__ \  )(   )(_)(  )___/
(___/ (__) (_____)(__)

# To stop irca, run the stop script in ./irca:
bash stop-irca.sh

 ____  ____  ___  ____   __    ____  ____
(  _ \( ___)/ __)(_  _) /__\  (  _ \(_  _)
 )   / )__) \__ \  )(  /(__)\  )   /  )(
(_)\_)(____)(___/ (__)(__)(__)(_)\_) (__)

# To restart a stopped irca, run the restart script in ./irca
bash restart-irca.sh

 ____  ____  __  __  _____  _  _  ____
(  _ \( ___)(  \/  )(  _  )( \/ )( ___)
 )   / )__)  )    (  )(_)(  \  /  )__)
(_)\_)(____)(_/\/\_)(_____)  \/  (____)

# To remove a stopped irca, run the remove script in ./irca
bash remove-irca.sh
