{"name": "All Techniques All Platforms", "versions": {"navigator": "4.5", "layer": "4.3"},
"domain": "enterprise-attack", "description": "stage: attack | platform(s): all | group(s): all | overlay group(s): ", "filters": {"platforms": ["PRE", "Windows", "macOS", "Linux", "Office 365", "Azure AD", "Google Workspace", "IaaS", "SaaS", "Network", "Containers"]},
"sorting": 3, "layout": {"layout": "flat", "aggregateFunction": "sum", "showAggregateScores": true, "countUnscored": false, "showName": true, "showID": false},
"hideDisable": false, "selectSubtechniquesWithParent": false, "techniques": [{"techniqueID": "T1560.001", "score": 25, "metadata": [{"name": "Group", "value": "Ke3chang, APT28, Mustang Panda, Turla, Magic Hound, APT33, HAFNIUM, GALLIUM, APT3, menuPass, Chimera, Aquatic Panda, MuddyWater, APT41, Gallmaker, BRONZE BUTLER, APT39, APT1, Operation Wocao, FIN8, APT29, Fox Kitten, CopyKittens, Kimsuky, Sowbug"}]},
{"techniqueID": "T1518.001", "score": 19, "metadata": [{"name": "Group", "value": "Naikon, The White Company, Turla, TeamTNT, Rocke, Cobalt Group, Darkhotel, Patchwork, Sidewinder, Wizard Spider, Windshift, Aquatic Panda, MuddyWater, Tropic Trooper, Operation Wocao, FIN8, Frankenstein, APT38, Kimsuky"}]},
{"techniqueID": "T1562.001", "score": 16, "metadata": [{"name": "Group", "value": "Lazarus Group, Rocke, Wizard Spider, BRONZE BUTLER, Night Dragon, Aquatic Panda, APT29, Indrik Spider, MuddyWater, Turla, FIN6, Gamaredon Group, Putter Panda, TeamTNT, Kimsuky, Gorgon Group"}]},
{"techniqueID": "T1588.001", "score": 6, "metadata": [{"name": "Group", "value": "Andariel, BackdoorDiplomacy, APT1, Aquatic Panda, Turla, LazyScripter"}]},
{"techniqueID": "T1082", "score": 39, "metadata": [{"name": "Group", "value": "Blue Mockingbird, Lazarus Group, Confucius, Ke3chang, APT37, ZIRCONIUM, Mustang Panda, Turla, OilRig, Gamaredon Group, Magic Hound, TeamTNT, Honeybee, Stealth Falcon, Rocke, Windigo, APT19, Darkhotel, APT3, Patchwork, Inception, Sidewinder, Chimera, Wizard Spider, Sandworm Team, APT32, Windshift, Aquatic Panda, MuddyWater, Higaisa, Tropic Trooper, Operation Wocao, APT18, APT29, Frankenstein, admin@338, APT38, Kimsuky, Sowbug"}], "showSubtechniques": false},
{"techniqueID": "T1003.001", "score": 31, "metadata": [{"name": "Group", "value": "Blue Mockingbird, Ke3chang, Cleaver, APT28, TEMP.Veles, OilRig, Magic Hound, Leviathan, APT33, HAFNIUM, GALLIUM, Indrik Spider, APT3, Silence, Sandworm Team, PLATINUM, APT32, Aquatic Panda, Threat Group-3390, MuddyWater, FIN6, APT41, BRONZE BUTLER, APT39, Leafminer, APT1, Operation Wocao, FIN8, Whitefly, Fox Kitten, Kimsuky"}]},
{"techniqueID": "T1070.004", "score": 38, "metadata": [{"name": "Group", "value": "Lazarus Group, APT28, TEMP.Veles, Mustang Panda, The White Company, Evilnum, OilRig, Gamaredon Group, Magic Hound, Honeybee, TeamTNT, Rocke, Cobalt Group, APT3, Patchwork, menuPass, Silence, Chimera, Wizard Spider, Sandworm Team, APT32, Threat Group-3390, Aquatic Panda, Tropic Trooper, FIN6, APT41, FIN5, FIN10, BRONZE BUTLER, APT39, Group5, Operation Wocao, FIN8, APT18, APT29, APT38, Dragonfly, Kimsuky"}]},
{"techniqueID": "T1059.003", "score": 57, "metadata": [{"name": "Group", "value": "Blue Mockingbird, Lazarus Group, Ke3chang, APT37, ZIRCONIUM, APT28, Mustang Panda, Turla, OilRig, Gamaredon Group, Magic Hound, TeamTNT, Honeybee, Cobalt Group, GALLIUM, Dark Caracal, Indrik Spider, Darkhotel, APT3, Patchwork, LazyScripter, Rancor, Gorgon Group, menuPass, Silence, Chimera, Wizard Spider, FIN7, Sandworm Team, APT32, Threat Group-3390, Aquatic Panda, Threat Group-1314, MuddyWater, Higaisa, Tropic Trooper, FIN6, TA505, APT41, FIN10, Nomadic Octopus, BRONZE BUTLER, APT1, Operation Wocao, Machete, FIN8, Suckfly, APT18, APT29, Fox Kitten, Frankenstein, admin@338, TA551, APT38, Dragonfly, Kimsuky, Sowbug"}]},
{"techniqueID": "T1105", "score": 67, "metadata": [{"name": "Group", "value": "Lazarus Group, Confucius, Ke3chang, APT37, ZIRCONIUM, BackdoorDiplomacy, APT28, Winnti Group, Mustang Panda, Turla, Evilnum, OilRig, Gamaredon Group, Magic Hound, Leviathan, TeamTNT, APT33, Volatile Cedar, HAFNIUM, Rocke, Cobalt Group, GALLIUM, Indrik Spider, Darkhotel, APT3, Molerats, Patchwork, LazyScripter, Rancor, Ajax Security Team, Sidewinder, Tonto Team, Silence, Gorgon Group, Chimera, FIN7, menuPass, Sandworm Team, PLATINUM, Windshift, Aquatic Panda, Sharpshooter, Elderwood, MuddyWater, APT32, Threat Group-3390, Tropic Trooper, APT-C-36, TA505, WIRTE, APT41, IndigoZebra, Nomadic Octopus, BRONZE BUTLER, APT39, Andariel, Operation Wocao, FIN8, APT18, Whitefly, APT29, Fox Kitten, Frankenstein, TA551, APT38, Dragonfly, Kimsuky"}], "showSubtechniques": false},
{"techniqueID": "T1027", "score": 65, "metadata": [{"name": "Group", "value": "Blue Mockingbird, Lazarus Group, Ke3chang, APT37, BackdoorDiplomacy, APT28, Mustang Panda, Turla, OilRig, Gamaredon Group, Putter Panda, Magic Hound, Leviathan, TeamTNT, Honeybee, APT33, GOLD SOUTHFIELD, Rocke, Cobalt Group, GALLIUM, APT19, Dark Caracal, Transparent Tribe, Darkhotel, APT3, Molerats, Dust Storm, Patchwork, LazyScripter, Inception, menuPass, Sidewinder, Silence, Chimera, Wizard Spider, FIN7, Sandworm Team, APT32, Windshift, Aquatic Panda, Elderwood, Threat Group-3390, MuddyWater, Higaisa, Tropic Trooper, FIN6, APT-C-36, TA505, Mofang, APT41, Gallmaker, Night Dragon, APT39, Leafminer, Group5, Operation Wocao, FIN8, APT18, Whitefly, APT29, Fox Kitten, Frankenstein, TA551, Kimsuky, BlackOasis"}], "showSubtechniques": true},
{"techniqueID": "T1595.002", "score": 8, "metadata": [{"name": "Group", "value": "Volatile Cedar, Sandworm Team, APT28, Aquatic Panda, APT29, Magic Hound, TeamTNT, Dragonfly"}]},
{"techniqueID": "T1007", "score": 12, "metadata": [{"name": "Group", "value": "Chimera, BRONZE BUTLER, Ke3chang, APT1, Operation Wocao, Aquatic Panda, Indrik Spider, Turla, admin@338, OilRig, Poseidon Group, Kimsuky"}], "showSubtechniques": false},
{"techniqueID": "T1588.002", "score": 53, "metadata": [{"name": "Group", "value": "Blue Mockingbird, Lazarus Group, Ke3chang, Cleaver, BackdoorDiplomacy, APT28, TEMP.Veles, Turla, BlackTech, Magic Hound, Silent Librarian, APT33, Thrip, DarkVishnya, Cobalt Group, PittyTiger, DarkHydrus, GALLIUM, APT19, Ferocious Kitten, Patchwork, Inception, Gorgon Group, menuPass, Silence, Chimera, Wizard Spider, Sandworm Team, APT32, Threat Group-3390, Aquatic Panda, MuddyWater, FIN6, APT-C-36, WIRTE, APT41, FIN5, FIN10, IndigoZebra, BRONZE BUTLER, APT39, Leafminer, Night Dragon, APT1, APT29, Whitefly, Frankenstein, Carbanak, CopyKittens, APT38, Dragonfly, Kimsuky, CostaRicto"}]},
{"techniqueID": "T1059.001", "score": 62, "metadata": [{"name": "Group", "value": "Blue Mockingbird, Lazarus Group, Confucius, APT28, TEMP.Veles, Mustang Panda, Turla, OilRig, Gamaredon Group, Poseidon Group, Magic Hound, Leviathan, TeamTNT, APT33, Thrip, GOLD SOUTHFIELD, DarkVishnya, HAFNIUM, Cobalt Group, Stealth Falcon, DarkHydrus, GALLIUM, APT19, Indrik Spider, APT3, Molerats, Patchwork, LazyScripter, Inception, Gorgon Group, Sidewinder, Tonto Team, Silence, menuPass, Chimera, Wizard Spider, FIN7, Sandworm Team, APT32, Threat Group-3390, Aquatic Panda, MuddyWater, FIN6, TA505, WIRTE, APT41, Gallmaker, FIN10, Deep Panda, Nomadic Octopus, BRONZE BUTLER, APT39, Operation Wocao, FIN8, APT29, Fox Kitten, Frankenstein, TA459, CopyKittens, APT38, Dragonfly, Kimsuky"}]},
{"techniqueID": "T1574.001", "score": 9, "metadata": [{"name": "Group", "value": "Tonto Team, RTM, Threat Group-3390, BackdoorDiplomacy, Aquatic Panda, Whitefly, Evilnum, APT41, menuPass"}]},
{"techniqueID": "T1566.001", "score": 68, "metadata": [{"name": "Group", "value": "Lazarus Group, Confucius, Naikon, APT37, APT28, Mustang Panda, The White Company, APT30, OilRig, BlackTech, Gamaredon Group, Leviathan, APT33, Cobalt Group, DarkHydrus, RTM, APT19, Transparent Tribe, Ferocious Kitten, Darkhotel, Molerats, Patchwork, LazyScripter, Inception, Rancor, Ajax Security Team, Sidewinder, Tonto Team, Silence, Gorgon Group, menuPass, Wizard Spider, FIN7, Sandworm Team, PLATINUM, Windshift, APT32, Sharpshooter, Elderwood, MuddyWater, Threat Group-3390, Higaisa, Tropic Trooper, FIN6, APT-C-36, TA505, Mofang, APT41, WIRTE, FIN4, Gallmaker, APT12, IndigoZebra, Nomadic Octopus, BRONZE BUTLER, APT39, Andariel, APT1, Machete, FIN8, APT29, Frankenstein, admin@338, TA459, TA551, APT38, Dragonfly, Kimsuky"}]},
{"techniqueID": "T1071.001", "score": 45, "metadata": [{"name": "Group", "value": "Lazarus Group, Confucius, SilverTerrier, Ke3chang, APT37, APT28, Mustang Panda, Turla, OilRig, Gamaredon Group, Magic Hound, TeamTNT, Orangeworm, APT33, HAFNIUM, Rocke, Cobalt Group, Stealth Falcon, APT19, Dark Caracal, Inception, Rancor, Sidewinder, Chimera, Wizard Spider, Sandworm Team, APT32, Windshift, Threat Group-3390, MuddyWater, Higaisa, Tropic Trooper, TA505, WIRTE, FIN4, APT41, BRONZE BUTLER, APT39, Night Dragon, FIN8, APT18, APT29, TA551, APT38, Kimsuky"}]},
{"techniqueID": "T1041", "score": 19, "metadata": [{"name": "Group", "value": "Lazarus Group, Confucius, Ke3chang, ZIRCONIUM, Gamaredon Group, Leviathan, Stealth Falcon, GALLIUM, APT3, Chimera, Wizard Spider, Sandworm Team, APT32, MuddyWater, Higaisa, APT39, Operation Wocao, Frankenstein, Kimsuky"}], "showSubtechniques": false},
{"techniqueID": "T1567.002", "score": 10, "metadata": [{"name": "Group", "value": "Lazarus Group, HAFNIUM, Confucius, Chimera, FIN7, ZIRCONIUM, Threat Group-3390, Turla, Leviathan, Kimsuky"}]},
{"techniqueID": "T1053.005", "score": 41, "metadata": [{"name": "Group", "value": "Blue Mockingbird, Lazarus Group, Confucius, Naikon, APT37, TEMP.Veles, Mustang Panda, OilRig, Gamaredon Group, APT33, Stealth Falcon, Cobalt Group, GALLIUM, APT3, Molerats, Patchwork, Rancor, menuPass, Silence, Chimera, Wizard Spider, FIN7, APT32, MuddyWater, Higaisa, FIN6, APT-C-36, APT41, FIN10, BRONZE BUTLER, APT39, Operation Wocao, Machete, FIN8, APT29, Fox Kitten, Frankenstein, APT38, Dragonfly, Kimsuky, CostaRicto"}]},
{"techniqueID": "T1566.002", "score": 36, "metadata": [{"name": "Group", "value": "Lazarus Group, Confucius, ZIRCONIUM, APT28, Mustang Panda, Turla, Evilnum, BlackTech, OilRig, Magic Hound, Leviathan, APT33, Cobalt Group, Transparent Tribe, APT3, Molerats, Patchwork, LazyScripter, Sidewinder, Wizard Spider, FIN7, Sandworm Team, APT32, Windshift, Elderwood, MuddyWater, TA505, FIN4, Mofang, Night Dragon, APT39, APT1, Machete, FIN8, APT29, Kimsuky"}]},
{"techniqueID": "T1204.001", "score": 35, "metadata": [{"name": "Group", "value": "Lazarus Group, Confucius, ZIRCONIUM, APT28, Mustang Panda, Turla, Evilnum, BlackTech, OilRig, Magic Hound, Leviathan, APT33, Cobalt Group, Transparent Tribe, APT3, Molerats, Patchwork, LazyScripter, Sidewinder, Wizard Spider, FIN7, Sandworm Team, APT32, Windshift, Elderwood, MuddyWater, TA505, FIN4, Mofang, Night Dragon, APT39, Machete, FIN8, APT29, Kimsuky"}]},
{"techniqueID": "T1221", "score": 9, "metadata": [{"name": "Group", "value": "Lazarus Group, Confucius, DarkHydrus, APT28, Frankenstein, Tropic Trooper, Gamaredon Group, Dragonfly, Inception"}], "showSubtechniques": false},
{"techniqueID": "T1218.005", "score": 13, "metadata": [{"name": "Group", "value": "Sidewinder, Lazarus Group, Confucius, Kimsuky, FIN7, APT32, APT29, Mustang Panda, MuddyWater, Gamaredon Group, TA551, LazyScripter, Inception"}]},
{"techniqueID": "T1583.006", "score": 14, "metadata": [{"name": "Group", "value": "Lazarus Group, HAFNIUM, Confucius, IndigoZebra, APT17, ZIRCONIUM, APT32, APT28, APT29, MuddyWater, Turla, Magic Hound, LazyScripter, Kimsuky"}]},
{"techniqueID": "T1119", "score": 17, "metadata": [{"name": "Group", "value": "Sidewinder, Confucius, Chimera, Ke3chang, Threat Group-3390, Operation Wocao, APT28, APT1, Mustang Panda, Frankenstein, Tropic Trooper, OilRig, Gamaredon Group, FIN6, Patchwork, FIN5, menuPass"}], "showSubtechniques": false},
{"techniqueID": "T1547.001", "score": 49, "metadata": [{"name": "Group", "value": "Lazarus Group, Confucius, PROMETHIUM, Naikon, APT37, Ke3chang, ZIRCONIUM, APT28, Mustang Panda, Turla, Gamaredon Group, Putter Panda, Magic Hound, Leviathan, Honeybee, TeamTNT, APT33, Rocke, Cobalt Group, RTM, APT19, Dark Caracal, Darkhotel, APT3, Molerats, Patchwork, LazyScripter, Inception, Gorgon Group, Sidewinder, Silence, Wizard Spider, FIN7, Threat Group-3390, APT32, Windshift, Sharpshooter, MuddyWater, Higaisa, Tropic Trooper, FIN6, APT41, FIN10, BRONZE BUTLER, APT39, APT18, APT29, Dragonfly, Kimsuky"}]},
{"techniqueID": "T1203", "score": 34, "metadata": [{"name": "Group", "value": "Lazarus Group, Confucius, APT37, APT28, Mustang Panda, The White Company, BlackTech, Axiom, Leviathan, APT33, Cobalt Group, Transparent Tribe, Darkhotel, APT3, Patchwork, Inception, Sidewinder, Tonto Team, Sandworm Team, APT32, Threat Group-3390, Elderwood, MuddyWater, Higaisa, Tropic Trooper, APT41, APT12, BRONZE BUTLER, Andariel, APT29, Frankenstein, admin@338, TA459, Dragonfly"}], "showSubtechniques": false},
{"techniqueID": "T1059.005", "score": 41, "metadata": [{"name": "Group", "value": "Lazarus Group, Confucius, APT37, Mustang Panda, Turla, OilRig, Gamaredon Group, Magic Hound, Leviathan, Honeybee, APT33, Cobalt Group, Transparent Tribe, Molerats, Patchwork, LazyScripter, Inception, Rancor, Gorgon Group, Sidewinder, Silence, FIN7, Sandworm Team, APT32, Windshift, Sharpshooter, MuddyWater, Higaisa, APT-C-36, TA505, FIN4, WIRTE, BRONZE BUTLER, APT39, Operation Wocao, Machete, APT29, Frankenstein, TA459, APT38, Kimsuky"}]},
{"techniqueID": "T1204.002", "score": 71, "metadata": [{"name": "Group", "value": "Lazarus Group, Confucius, PROMETHIUM, Naikon, APT37, APT28, Mustang Panda, The White Company, APT30, OilRig, BlackTech, Gamaredon Group, Magic Hound, Leviathan, APT33, Cobalt Group, DarkHydrus, RTM, APT19, Dark Caracal, Transparent Tribe, Ferocious Kitten, Indrik Spider, Darkhotel, Molerats, Patchwork, LazyScripter, Inception, Rancor, Ajax Security Team, Sidewinder, Tonto Team, Silence, Gorgon Group, menuPass, Wizard Spider, FIN7, Sandworm Team, PLATINUM, Windshift, APT32, Sharpshooter, Elderwood, MuddyWater, Threat Group-3390, Higaisa, Tropic Trooper, FIN6, APT-C-36, TA505, Mofang, WIRTE, FIN4, Gallmaker, APT12, IndigoZebra, Nomadic Octopus, BRONZE BUTLER, APT39, Andariel, Machete, FIN8, Whitefly, APT29, Frankenstein, admin@338, TA459, TA551, APT38, Dragonfly, Kimsuky"}]},
{"techniqueID": "T1083", "score": 37, "metadata": [{"name": "Group", "value": "Lazarus Group, Confucius, Ke3chang, APT28, Winnti Group, Mustang Panda, Turla, Gamaredon Group, Magic Hound, Honeybee, Windigo, Dark Caracal, Darkhotel, APT3, Dust Storm, Patchwork, Inception, menuPass, Sidewinder, Chimera, Sandworm Team, APT32, MuddyWater, Tropic Trooper, APT41, BRONZE BUTLER, APT39, Leafminer, Operation Wocao, APT18, APT29, Fox Kitten, admin@338, APT38, Dragonfly, Kimsuky, Sowbug"}], "showSubtechniques": false},
{"techniqueID": "T1583.001", "score": 22, "metadata": [{"name": "Group", "value": "Lazarus Group, ZIRCONIUM, APT28, Winnti Group, Mustang Panda, Gamaredon Group, Magic Hound, Silent Librarian, Leviathan, TeamTNT, Transparent Tribe, Ferocious Kitten, LazyScripter, menuPass, FIN7, Sandworm Team, APT32, IndigoZebra, APT1, APT29, Dragonfly, Kimsuky"}]},
{"techniqueID": "T1071.004", "score": 10, "metadata": [{"name": "Group", "value": "Cobalt Group, Chimera, FIN7, APT39, Ke3chang, APT18, Tropic Trooper, OilRig, APT41, LazyScripter"}]},
{"techniqueID": "T1218.011", "score": 19, "metadata": [{"name": "Group", "value": "Blue Mockingbird, Lazarus Group, APT28, Gamaredon Group, HAFNIUM, APT19, APT3, LazyScripter, Sandworm Team, APT32, MuddyWater, TA505, APT41, APT29, Carbanak, CopyKittens, TA551, APT38, Kimsuky"}]},
{"techniqueID": "T1059.007", "score": 16, "metadata": [{"name": "Group", "value": "Sidewinder, Silence, Cobalt Group, FIN7, Leafminer, APT32, Indrik Spider, MuddyWater, Turla, Higaisa, Evilnum, FIN6, TA505, Molerats, LazyScripter, Kimsuky"}]},
{"techniqueID": "T1608.001", "score": 8, "metadata": [{"name": "Group", "value": "Lazarus Group, Threat Group-3390, APT32, Mustang Panda, Gamaredon Group, TeamTNT, LazyScripter, Kimsuky"}]},
{"techniqueID": "T1036", "score": 15, "metadata": [{"name": "Group", "value": "Lazarus Group, Nomadic Octopus, BRONZE BUTLER, ZIRCONIUM, PLATINUM, Windshift, APT32, APT29, APT28, OilRig, Dragonfly, TA551, LazyScripter, Kimsuky, menuPass"}], "showSubtechniques": true},
{"techniqueID": "T1102", "score": 11, "metadata": [{"name": "Group", "value": "Rocke, APT32, FIN8, Mustang Panda, Fox Kitten, Turla, FIN6, Gamaredon Group, TeamTNT, LazyScripter, Inception"}], "showSubtechniques": true},
{"techniqueID": "T1613", "score": 1, "metadata": [{"name": "Group", "value": "TeamTNT"}], "showSubtechniques": false},
{"techniqueID": "T1552.004", "score": 4, "metadata": [{"name": "Group", "value": "TeamTNT, Operation Wocao, Rocke, APT29"}]},
{"techniqueID": "T1222.002", "score": 3, "metadata": [{"name": "Group", "value": "TeamTNT, APT32, Rocke"}]},
{"techniqueID": "T1136.001", "score": 8, "metadata": [{"name": "Group", "value": "APT39, Leafminer, Fox Kitten, APT3, TeamTNT, APT41, Dragonfly, Kimsuky"}]},
{"techniqueID": "T1610", "score": 1, "metadata": [{"name": "Group", "value": "TeamTNT"}], "showSubtechniques": false},
{"techniqueID": "T1543.003", "score": 19, "metadata": [{"name": "Group", "value": "Blue Mockingbird, Lazarus Group, PROMETHIUM, Ke3chang, Honeybee, TeamTNT, DarkVishnya, Cobalt Group, APT19, APT3, Wizard Spider, FIN7, Threat Group-3390, APT32, Tropic Trooper, APT41, Carbanak, APT38, Kimsuky"}]},
{"techniqueID": "T1611", "score": 1, "metadata": [{"name": "Group", "value": "TeamTNT"}], "showSubtechniques": false},
{"techniqueID": "T1046", "score": 22, "metadata": [{"name": "Group", "value": "Lazarus Group, Naikon, BackdoorDiplomacy, OilRig, BlackTech, TeamTNT, DarkVishnya, Rocke, Cobalt Group, menuPass, Chimera, Threat Group-3390, APT32, Tropic Trooper, FIN6, APT41, APT39, Leafminer, Operation Wocao, Suckfly, Fox Kitten, CostaRicto"}], "showSubtechniques": false},
{"techniqueID": "T1027.002", "score": 18, "metadata": [{"name": "Group", "value": "Lazarus Group, Patchwork, Rocke, Night Dragon, APT39, ZIRCONIUM, GALLIUM, Sandworm Team, Threat Group-3390, Dark Caracal, Elderwood, APT29, The White Company, APT3, TA505, TeamTNT, APT38, Kimsuky"}]},
{"techniqueID": "T1098.004", "score": 1, "metadata": [{"name": "Group", "value": "TeamTNT"}]},
{"techniqueID": "T1204.003", "score": 1, "metadata": [{"name": "Group", "value": "TeamTNT"}]},
{"techniqueID": "T1595.001", "score": 1, "metadata": [{"name": "Group", "value": "TeamTNT"}]},
{"techniqueID": "T1014", "score": 5, "metadata": [{"name": "Group", "value": "Rocke, APT28, Winnti Group, TeamTNT, APT41"}], "showSubtechniques": false},
{"techniqueID": "T1071", "score": 4, "metadata": [{"name": "Group", "value": "TeamTNT, Rocke, Dragonfly, Magic Hound"}], "showSubtechniques": true},
{"techniqueID": "T1049", "score": 23, "metadata": [{"name": "Group", "value": "Lazarus Group, Ke3chang, BackdoorDiplomacy, Mustang Panda, Turla, OilRig, Poseidon Group, TeamTNT, GALLIUM, APT3, menuPass, Chimera, Sandworm Team, APT32, Threat Group-3390, MuddyWater, Tropic Trooper, APT41, Andariel, Operation Wocao, APT1, admin@338, APT38"}], "showSubtechniques": false},
{"techniqueID": "T1219", "score": 13, "metadata": [{"name": "Group", "value": "GOLD SOUTHFIELD, DarkVishnya, Cobalt Group, Night Dragon, RTM, Sandworm Team, Mustang Panda, MuddyWater, Evilnum, Carbanak, TeamTNT, Kimsuky, Thrip"}], "showSubtechniques": false},
{"techniqueID": "T1552.005", "score": 1, "metadata": [{"name": "Group", "value": "TeamTNT"}]},
{"techniqueID": "T1543.002", "score": 2, "metadata": [{"name": "Group", "value": "TeamTNT, Rocke"}]},
{"techniqueID": "T1609", "score": 1, "metadata": [{"name": "Group", "value": "TeamTNT"}], "showSubtechniques": false},
{"techniqueID": "T1070.002", "score": 2, "metadata": [{"name": "Group", "value": "TeamTNT, Rocke"}]},
{"techniqueID": "T1133", "score": 20, "metadata": [{"name": "Group", "value": "Ke3chang, APT28, TEMP.Veles, OilRig, Leviathan, TeamTNT, GOLD SOUTHFIELD, GALLIUM, Chimera, Wizard Spider, Sandworm Team, Threat Group-3390, FIN5, APT41, Night Dragon, Operation Wocao, APT18, APT29, Dragonfly, Kimsuky"}], "showSubtechniques": false},
{"techniqueID": "T1496", "score": 4, "metadata": [{"name": "Group", "value": "TeamTNT, Blue Mockingbird, APT41, Rocke"}], "showSubtechniques": false},
{"techniqueID": "T1587.001", "score": 10, "metadata": [{"name": "Group", "value": "Lazarus Group, FIN7, Night Dragon, Ke3chang, Sandworm Team, Cleaver, APT29, Turla, TeamTNT, Kimsuky"}]},
{"techniqueID": "T1562.004", "score": 9, "metadata": [{"name": "Group", "value": "Lazarus Group, Rocke, Operation Wocao, APT29, Carbanak, TeamTNT, APT38, Dragonfly, Kimsuky"}]},
{"techniqueID": "T1059.004", "score": 3, "metadata": [{"name": "Group", "value": "TeamTNT, APT41, Rocke"}]},
{"techniqueID": "T1070.003", "score": 4, "metadata": [{"name": "Group", "value": "TeamTNT, Lazarus Group, APT41, menuPass"}]},
{"techniqueID": "T1552.001", "score": 9, "metadata": [{"name": "Group", "value": "Leafminer, MuddyWater, Fox Kitten, OilRig, APT3, TA505, TeamTNT, APT33, Kimsuky"}]},
{"techniqueID": "T1016", "score": 31, "metadata": [{"name": "Group", "value": "Lazarus Group, Naikon, Ke3chang, ZIRCONIUM, Mustang Panda, Turla, OilRig, Magic Hound, TeamTNT, Stealth Falcon, GALLIUM, APT19, Darkhotel, APT3, menuPass, Sidewinder, Chimera, Wizard Spider, Sandworm Team, APT32, Threat Group-3390, MuddyWater, Higaisa, Tropic Trooper, APT41, APT1, Operation Wocao, Frankenstein, admin@338, Dragonfly, Kimsuky"}], "showSubtechniques": true},
{"techniqueID": "T1057", "score": 33, "metadata": [{"name": "Group", "value": "Lazarus Group, Ke3chang, APT37, APT28, Winnti Group, Mustang Panda, Turla, OilRig, Gamaredon Group, Poseidon Group, Magic Hound, Honeybee, TeamTNT, Stealth Falcon, Rocke, Darkhotel, APT3, Molerats, Inception, Sidewinder, Chimera, Windshift, MuddyWater, Higaisa, Tropic Trooper, Deep Panda, Andariel, Operation Wocao, APT1, APT29, Frankenstein, APT38, Kimsuky"}], "showSubtechniques": false},
{"techniqueID": "T1021.004", "score": 12, "metadata": [{"name": "Group", "value": "Lazarus Group, Rocke, FIN7, APT39, TEMP.Veles, Fox Kitten, OilRig, BlackTech, Leviathan, TeamTNT, GCMAN, menuPass"}]},
{"techniqueID": "T1590.005", "score": 2, "metadata": [{"name": "Group", "value": "Andariel, HAFNIUM"}]},
{"techniqueID": "T1189", "score": 26, "metadata": [{"name": "Group", "value": "Lazarus Group, PROMETHIUM, APT37, APT28, Turla, Axiom, Magic Hound, Leviathan, RTM, Windigo, APT19, Dark Caracal, Transparent Tribe, Darkhotel, Patchwork, Threat Group-3390, PLATINUM, Windshift, APT32, Elderwood, BRONZE BUTLER, Leafminer, Andariel, Machete, APT38, Dragonfly"}], "showSubtechniques": false},
{"techniqueID": "T1027.003", "score": 7, "metadata": [{"name": "Group", "value": "BRONZE BUTLER, APT37, Andariel, MuddyWater, Tropic Trooper, Leviathan, TA551"}]},
{"techniqueID": "T1005", "score": 33, "metadata": [{"name": "Group", "value": "Lazarus Group, Ke3chang, APT37, APT28, Turla, Gamaredon Group, Axiom, Honeybee, Stealth Falcon, Windigo, GALLIUM, Dark Caracal, APT3, Dust Storm, Patchwork, Inception, menuPass, FIN7, Sandworm Team, Threat Group-3390, FIN6, APT41, BRONZE BUTLER, APT39, Andariel, Operation Wocao, APT1, APT29, Fox Kitten, Frankenstein, APT38, Dragonfly, Kimsuky"}], "showSubtechniques": false},
{"techniqueID": "T1592.002", "score": 2, "metadata": [{"name": "Group", "value": "Andariel, Sandworm Team"}]},
{"techniqueID": "T1036.002", "score": 5, "metadata": [{"name": "Group", "value": "Ke3chang, BRONZE BUTLER, Ferocious Kitten, BlackTech, Scarlet Mimic"}]},
{"techniqueID": "T1036.005", "score": 39, "metadata": [{"name": "Group", "value": "Blue Mockingbird, Lazarus Group, PROMETHIUM, Naikon, Ke3chang, BackdoorDiplomacy, APT28, TEMP.Veles, Mustang Panda, Gamaredon Group, Poseidon Group, Rocke, Transparent Tribe, Ferocious Kitten, Indrik Spider, Darkhotel, Patchwork, menuPass, Sidewinder, Silence, Chimera, FIN7, Sandworm Team, APT32, MuddyWater, Tropic Trooper, WIRTE, APT41, BRONZE BUTLER, APT39, APT1, Machete, APT29, Whitefly, Fox Kitten, admin@338, Carbanak, Kimsuky, Sowbug"}]},
{"techniqueID": "T1586.002", "score": 6, "metadata": [{"name": "Group", "value": "IndigoZebra, APT28, APT29, Magic Hound, Leviathan, Kimsuky"}]},
{"techniqueID": "T1505.003", "score": 21, "metadata": [{"name": "Group", "value": "BackdoorDiplomacy, APT28, TEMP.Veles, OilRig, Leviathan, Volatile Cedar, HAFNIUM, GALLIUM, Tonto Team, Sandworm Team, APT32, Threat Group-3390, Tropic Trooper, Deep Panda, APT39, Operation Wocao, APT29, Fox Kitten, APT38, Dragonfly, Kimsuky"}]},
{"techniqueID": "T1190", "score": 22, "metadata": [{"name": "Group", "value": "Blue Mockingbird, Ke3chang, BackdoorDiplomacy, APT28, BlackTech, Axiom, Magic Hound, Volatile Cedar, GOLD SOUTHFIELD, HAFNIUM, Rocke, GALLIUM, menuPass, Threat Group-3390, APT41, Night Dragon, APT39, Operation Wocao, APT29, Fox Kitten, Dragonfly, Kimsuky"}], "showSubtechniques": false},
{"techniqueID": "T1074.001", "score": 20, "metadata": [{"name": "Group", "value": "Lazarus Group, BackdoorDiplomacy, APT28, TEMP.Veles, Mustang Panda, Leviathan, Honeybee, GALLIUM, Indrik Spider, APT3, Patchwork, menuPass, Sidewinder, Chimera, Threat Group-3390, FIN5, APT39, Operation Wocao, Dragonfly, Kimsuky"}]},
{"techniqueID": "T1095", "score": 7, "metadata": [{"name": "Group", "value": "HAFNIUM, PLATINUM, BackdoorDiplomacy, Operation Wocao, APT29, FIN6, APT3"}], "showSubtechniques": false},
{"techniqueID": "T1055.001", "score": 8, "metadata": [{"name": "Group", "value": "Lazarus Group, Wizard Spider, BackdoorDiplomacy, Turla, Tropic Trooper, Putter Panda, TA505, Leviathan"}]},
{"techniqueID": "T1036.004", "score": 16, "metadata": [{"name": "Group", "value": "Lazarus Group, PROMETHIUM, Wizard Spider, FIN7, Naikon, ZIRCONIUM, BackdoorDiplomacy, APT32, APT29, Fox Kitten, Higaisa, FIN6, Carbanak, APT-C-36, APT41, Kimsuky"}]},
{"techniqueID": "T1120", "score": 8, "metadata": [{"name": "Group", "value": "APT37, BackdoorDiplomacy, Operation Wocao, APT28, Turla, OilRig, Gamaredon Group, Equation"}], "showSubtechniques": false},
{"techniqueID": "T1608.004", "score": 4, "metadata": [{"name": "Group", "value": "Threat Group-3390, APT32, Dragonfly, Transparent Tribe"}]},
{"techniqueID": "T1584.001", "score": 6, "metadata": [{"name": "Group", "value": "Lazarus Group, APT1, APT29, Transparent Tribe, Magic Hound, Kimsuky"}]},
{"techniqueID": "T1564.001", "score": 7, "metadata": [{"name": "Group", "value": "Lazarus Group, Rocke, APT32, APT28, Transparent Tribe, Mustang Panda, Tropic Trooper"}]},
{"techniqueID": "T1568", "score": 3, "metadata": [{"name": "Group", "value": "Gamaredon Group, Transparent Tribe, APT29"}], "showSubtechniques": true},
{"techniqueID": "T1564.003", "score": 13, "metadata": [{"name": "Group", "value": "Deep Panda, Nomadic Octopus, DarkHydrus, APT32, APT19, APT28, Higaisa, Gamaredon Group, APT3, Magic Hound, CopyKittens, Kimsuky, Gorgon Group"}]},
{"techniqueID": "T1090.003", "score": 7, "metadata": [{"name": "Group", "value": "Operation Wocao, APT28, APT29, Leviathan, FIN4, Inception, CostaRicto"}]},
{"techniqueID": "T1572", "score": 7, "metadata": [{"name": "Group", "value": "Cobalt Group, Chimera, Fox Kitten, OilRig, FIN6, Leviathan, CostaRicto"}], "showSubtechniques": false},
{"techniqueID": "T1069.001", "score": 6, "metadata": [{"name": "Group", "value": "Tonto Team, Chimera, Operation Wocao, Turla, admin@338, OilRig"}]},
{"techniqueID": "T1135", "score": 13, "metadata": [{"name": "Group", "value": "Tonto Team, DarkVishnya, Chimera, Wizard Spider, APT39, APT38, APT1, Operation Wocao, APT32, Tropic Trooper, APT41, Dragonfly, Sowbug"}], "showSubtechniques": false},
{"techniqueID": "T1068", "score": 13, "metadata": [{"name": "Group", "value": "Tonto Team, Cobalt Group, ZIRCONIUM, PLATINUM, FIN8, APT32, Whitefly, Threat Group-3390, APT29, APT28, Turla, FIN6, APT33"}], "showSubtechniques": false},
{"techniqueID": "T1059.006", "score": 13, "metadata": [{"name": "Group", "value": "Tonto Team, Rocke, BRONZE BUTLER, APT39, APT37, ZIRCONIUM, Operation Wocao, Machete, APT29, MuddyWater, Turla, Dragonfly, Kimsuky"}]},
{"techniqueID": "T1003", "score": 10, "metadata": [{"name": "Group", "value": "Tonto Team, APT39, APT32, APT28, Suckfly, Frankenstein, Poseidon Group, Axiom, Leviathan, Sowbug"}], "showSubtechniques": true},
{"techniqueID": "T1210", "score": 8, "metadata": [{"name": "Group", "value": "Tonto Team, FIN7, Wizard Spider, Threat Group-3390, APT28, Fox Kitten, Dragonfly, menuPass"}], "showSubtechniques": false},
{"techniqueID": "T1056.001", "score": 22, "metadata": [{"name": "Group", "value": "Lazarus Group, Ke3chang, APT28, OilRig, Magic Hound, Darkhotel, APT3, menuPass, Ajax Security Team, Tonto Team, Sandworm Team, PLATINUM, APT32, Threat Group-3390, FIN4, APT41, APT39, Group5, Operation Wocao, APT38, Kimsuky, Sowbug"}]},
{"techniqueID": "T1090.002", "score": 10, "metadata": [{"name": "Group", "value": "Tonto Team, Silence, Lazarus Group, APT39, GALLIUM, APT28, MuddyWater, APT3, FIN5, menuPass"}]},
{"techniqueID": "T1555.003", "score": 17, "metadata": [{"name": "Group", "value": "Stealth Falcon, Kimsuky, Leafminer, APT37, ZIRCONIUM, Sandworm Team, APT29, MuddyWater, OilRig, FIN6, APT3, TA505, Molerats, Patchwork, APT33, Inception, Ajax Security Team"}]},
{"techniqueID": "T1566.003", "score": 8, "metadata": [{"name": "Group", "value": "Lazarus Group, Windshift, APT29, Dark Caracal, OilRig, FIN6, Magic Hound, Ajax Security Team"}]},
{"techniqueID": "T1573.001", "score": 11, "metadata": [{"name": "Group", "value": "Lazarus Group, Stealth Falcon, BRONZE BUTLER, ZIRCONIUM, APT28, Mustang Panda, Frankenstein, Higaisa, Darkhotel, APT33, Inception"}]},
{"techniqueID": "T1608", "score": 1, "metadata": [{"name": "Group", "value": "Mustang Panda"}], "showSubtechniques": true},
{"techniqueID": "T1518", "score": 9, "metadata": [{"name": "Group", "value": "Sidewinder, BRONZE BUTLER, Windigo, Windshift, Operation Wocao, Mustang Panda, MuddyWater, Tropic Trooper, Inception"}], "showSubtechniques": true},
{"techniqueID": "T1027.001", "score": 9, "metadata": [{"name": "Group", "value": "BRONZE BUTLER, APT32, Moafee, APT29, Mustang Panda, Higaisa, Gamaredon Group, Leviathan, Patchwork"}]},
{"techniqueID": "T1091", "score": 5, "metadata": [{"name": "Group", "value": "FIN7, APT28, Mustang Panda, Tropic Trooper, Darkhotel"}], "showSubtechniques": false},
{"techniqueID": "T1546.003", "score": 7, "metadata": [{"name": "Group", "value": "Blue Mockingbird, FIN8, APT29, Mustang Panda, Turla, Leviathan, APT33"}]},
{"techniqueID": "T1585.002", "score": 8, "metadata": [{"name": "Group", "value": "Lazarus Group, Sandworm Team, APT1, Mustang Panda, Magic Hound, Leviathan, Silent Librarian, Kimsuky"}]},
{"techniqueID": "T1052.001", "score": 2, "metadata": [{"name": "Group", "value": "Tropic Trooper, Mustang Panda"}]},
{"techniqueID": "T1003.003", "score": 10, "metadata": [{"name": "Group", "value": "HAFNIUM, Chimera, Wizard Spider, Ke3chang, APT28, Mustang Panda, Fox Kitten, FIN6, Dragonfly, menuPass"}]},
{"techniqueID": "T1574.002", "score": 17, "metadata": [{"name": "Group", "value": "Sidewinder, Lazarus Group, Chimera, BRONZE BUTLER, Naikon, Threat Group-3390, GALLIUM, APT19, APT32, Mustang Panda, Higaisa, Tropic Trooper, BlackTech, APT3, Patchwork, APT41, menuPass"}]},
{"techniqueID": "T1218.004", "score": 2, "metadata": [{"name": "Group", "value": "Mustang Panda, menuPass"}]},
{"techniqueID": "T1560.003", "score": 5, "metadata": [{"name": "Group", "value": "Lazarus Group, Mustang Panda, FIN6, CopyKittens, Kimsuky"}]},
{"techniqueID": "T1047", "score": 26, "metadata": [{"name": "Group", "value": "Blue Mockingbird, Lazarus Group, Naikon, Mustang Panda, OilRig, Gamaredon Group, Leviathan, Stealth Falcon, GALLIUM, Indrik Spider, menuPass, Chimera, Wizard Spider, FIN7, Sandworm Team, APT32, Windshift, Threat Group-3390, MuddyWater, FIN6, APT41, Deep Panda, Operation Wocao, FIN8, APT29, Frankenstein"}], "showSubtechniques": false},
{"techniqueID": "T1036.007", "score": 1, "metadata": [{"name": "Group", "value": "Mustang Panda"}]},
{"techniqueID": "T1124", "score": 10, "metadata": [{"name": "Group", "value": "Sidewinder, Lazarus Group, Chimera, BRONZE BUTLER, ZIRCONIUM, Operation Wocao, The White Company, Turla, Higaisa, Darkhotel"}], "showSubtechniques": false},
{"techniqueID": "T1102.002", "score": 14, "metadata": [{"name": "Group", "value": "Lazarus Group, FIN7, APT37, APT39, ZIRCONIUM, Sandworm Team, APT28, APT29, MuddyWater, Turla, Carbanak, Magic Hound, APT12, Kimsuky"}]},
{"techniqueID": "T1033", "score": 28, "metadata": [{"name": "Group", "value": "Lazarus Group, Ke3chang, APT37, ZIRCONIUM, OilRig, Gamaredon Group, Magic Hound, Stealth Falcon, GALLIUM, APT19, APT3, Patchwork, Sidewinder, Chimera, Wizard Spider, Sandworm Team, APT32, Windshift, Threat Group-3390, MuddyWater, Tropic Trooper, APT41, FIN10, APT39, Operation Wocao, Frankenstein, APT38, Dragonfly"}], "showSubtechniques": false},
{"techniqueID": "T1140", "score": 26, "metadata": [{"name": "Group", "value": "Lazarus Group, Ke3chang, ZIRCONIUM, APT28, Turla, OilRig, Gamaredon Group, Leviathan, Honeybee, Rocke, APT19, Darkhotel, Molerats, menuPass, Gorgon Group, Sandworm Team, Threat Group-3390, MuddyWater, Higaisa, Tropic Trooper, WIRTE, BRONZE BUTLER, APT39, APT29, Frankenstein, Kimsuky"}], "showSubtechniques": false},
{"techniqueID": "T1012", "score": 13, "metadata": [{"name": "Group", "value": "Lazarus Group, Stealth Falcon, Chimera, APT39, ZIRCONIUM, Operation Wocao, APT32, Threat Group-3390, Fox Kitten, Turla, OilRig, Dragonfly, Kimsuky"}], "showSubtechniques": false},
{"techniqueID": "T1598", "score": 2, "metadata": [{"name": "Group", "value": "ZIRCONIUM, APT28"}], "showSubtechniques": true},
{"techniqueID": "T1218.007", "score": 5, "metadata": [{"name": "Group", "value": "ZIRCONIUM, Machete, TA505, Molerats, Rancor"}]},
{"techniqueID": "T1218.010", "score": 11, "metadata": [{"name": "Group", "value": "Blue Mockingbird, Lazarus Group, Cobalt Group, Deep Panda, Kimsuky, APT32, APT19, WIRTE, Leviathan, TA551, Inception"}]},
{"techniqueID": "T1568.002", "score": 2, "metadata": [{"name": "Group", "value": "TA551, APT41"}]},
{"techniqueID": "T1589.002", "score": 9, "metadata": [{"name": "Group", "value": "Lazarus Group, HAFNIUM, Sandworm Team, APT32, MuddyWater, Magic Hound, Silent Librarian, TA551, Kimsuky"}]},
{"techniqueID": "T1132.001", "score": 10, "metadata": [{"name": "Group", "value": "Lazarus Group, HAFNIUM, BRONZE BUTLER, Sandworm Team, APT19, MuddyWater, Tropic Trooper, Patchwork, TA551, APT33"}]},
{"techniqueID": "T1220", "score": 3, "metadata": [{"name": "Group", "value": "Higaisa, Cobalt Group, Lazarus Group"}], "showSubtechniques": false},
{"techniqueID": "T1090.001", "score": 7, "metadata": [{"name": "Group", "value": "Lazarus Group, APT39, Operation Wocao, APT29, Turla, Higaisa, Strider"}]},
{"techniqueID": "T1001.003", "score": 2, "metadata": [{"name": "Group", "value": "Higaisa, Lazarus Group"}]},
{"techniqueID": "T1029", "score": 1, "metadata": [{"name": "Group", "value": "Higaisa"}], "showSubtechniques": false},
{"techniqueID": "T1106", "score": 14, "metadata": [{"name": "Group", "value": "Silence, Lazarus Group, Chimera, APT37, Operation Wocao, Sharpshooter, Turla, Higaisa, Tropic Trooper, BlackTech, Gamaredon Group, menuPass, APT38, Gorgon Group"}], "showSubtechniques": false},
{"techniqueID": "T1583.003", "score": 4, "metadata": [{"name": "Group", "value": "Axiom, HAFNIUM, Dragonfly, TEMP.Veles"}]},
{"techniqueID": "T1592.004", "score": 1, "metadata": [{"name": "Group", "value": "HAFNIUM"}]},
{"techniqueID": "T1114.002", "score": 10, "metadata": [{"name": "Group", "value": "HAFNIUM, Chimera, Ke3chang, Leafminer, APT1, APT28, APT29, FIN4, Dragonfly, Kimsuky"}]},
{"techniqueID": "T1590", "score": 1, "metadata": [{"name": "Group", "value": "HAFNIUM"}], "showSubtechniques": true},
{"techniqueID": "T1136.002", "score": 3, "metadata": [{"name": "Group", "value": "Sandworm Team, GALLIUM, HAFNIUM"}]},
{"techniqueID": "T1078.003", "score": 9, "metadata": [{"name": "Group", "value": "HAFNIUM, PROMETHIUM, Operation Wocao, APT32, APT29, Turla, Tropic Trooper, FIN10, Kimsuky"}]},
{"techniqueID": "T1059", "score": 14, "metadata": [{"name": "Group", "value": "Stealth Falcon, FIN7, APT39, APT37, Ke3chang, Windigo, APT19, APT32, Whitefly, Fox Kitten, OilRig, FIN6, FIN5, Dragonfly"}], "showSubtechniques": true},
{"techniqueID": "T1090", "score": 7, "metadata": [{"name": "Group", "value": "Blue Mockingbird, Sandworm Team, Windigo, Operation Wocao, Fox Kitten, Turla, APT41"}], "showSubtechniques": true},
{"techniqueID": "T1595.003", "score": 1, "metadata": [{"name": "Group", "value": "Volatile Cedar"}]},
{"techniqueID": "T1589.003", "score": 3, "metadata": [{"name": "Group", "value": "Sandworm Team, Kimsuky, Silent Librarian"}]},
{"techniqueID": "T1588.004", "score": 3, "metadata": [{"name": "Group", "value": "Lazarus Group, BlackTech, Silent Librarian"}]},
{"techniqueID": "T1078", "score": 33, "metadata": [{"name": "Group", "value": "Lazarus Group, Ke3chang, APT28, TEMP.Veles, OilRig, Axiom, Silent Librarian, Leviathan, APT33, PittyTiger, GALLIUM, menuPass, Silence, Chimera, Wizard Spider, FIN7, Sandworm Team, Threat Group-3390, FIN6, FIN4, FIN5, APT41, FIN10, Night Dragon, APT39, Operation Wocao, FIN8, Suckfly, APT18, APT29, Fox Kitten, Carbanak, Dragonfly"}], "showSubtechniques": true},
{"techniqueID": "T1114.003", "score": 2, "metadata": [{"name": "Group", "value": "Kimsuky, Silent Librarian"}]},
{"techniqueID": "T1598.003", "score": 8, "metadata": [{"name": "Group", "value": "Sidewinder, Sandworm Team, APT32, APT28, Magic Hound, Silent Librarian, Dragonfly, Kimsuky"}]},
{"techniqueID": "T1594", "score": 3, "metadata": [{"name": "Group", "value": "Sandworm Team, Kimsuky, Silent Librarian"}], "showSubtechniques": false},
{"techniqueID": "T1110.003", "score": 8, "metadata": [{"name": "Group", "value": "Lazarus Group, Chimera, Leafminer, Sandworm Team, APT28, APT29, Silent Librarian, APT33"}]},
{"techniqueID": "T1608.005", "score": 1, "metadata": [{"name": "Group", "value": "Silent Librarian"}]},
{"techniqueID": "T1114", "score": 2, "metadata": [{"name": "Group", "value": "Magic Hound, Silent Librarian"}], "showSubtechniques": true},
{"techniqueID": "T1559.002", "score": 11, "metadata": [{"name": "Group", "value": "Sidewinder, Cobalt Group, FIN7, APT37, APT28, Sharpshooter, MuddyWater, TA505, Leviathan, Patchwork, Gallmaker"}]},
{"techniqueID": "T1598.002", "score": 2, "metadata": [{"name": "Group", "value": "Sidewinder, Dragonfly"}]},
{"techniqueID": "T1020", "score": 6, "metadata": [{"name": "Group", "value": "Sidewinder, Ke3chang, Frankenstein, Tropic Trooper, Gamaredon Group, Honeybee"}], "showSubtechniques": false},
{"techniqueID": "T1555", "score": 9, "metadata": [{"name": "Group", "value": "Stealth Falcon, Leafminer, APT39, APT29, MuddyWater, Evilnum, OilRig, FIN6, APT33"}], "showSubtechniques": true},
{"techniqueID": "T1497.001", "score": 5, "metadata": [{"name": "Group", "value": "Lazarus Group, Frankenstein, Evilnum, OilRig, Darkhotel"}]},
{"techniqueID": "T1539", "score": 2, "metadata": [{"name": "Group", "value": "Evilnum, APT29"}], "showSubtechniques": false},
{"techniqueID": "T1548.002", "score": 9, "metadata": [{"name": "Group", "value": "Patchwork, Cobalt Group, BRONZE BUTLER, APT37, Threat Group-3390, APT29, MuddyWater, Evilnum, Honeybee"}]},
{"techniqueID": "T1070.001", "score": 10, "metadata": [{"name": "Group", "value": "FIN5, Chimera, APT38, Operation Wocao, FIN8, APT32, APT28, Indrik Spider, APT41, Dragonfly"}]},
{"techniqueID": "T1584.004", "score": 5, "metadata": [{"name": "Group", "value": "Lazarus Group, APT16, Indrik Spider, Turla, Dragonfly"}]},
{"techniqueID": "T1486", "score": 5, "metadata": [{"name": "Group", "value": "FIN7, Indrik Spider, TA505, APT38, APT41"}], "showSubtechniques": false},
{"techniqueID": "T1078.002", "score": 10, "metadata": [{"name": "Group", "value": "Chimera, Wizard Spider, Naikon, Sandworm Team, Operation Wocao, Threat Group-1314, APT29, Indrik Spider, APT3, TA505"}]},
{"techniqueID": "T1136", "score": 2, "metadata": [{"name": "Group", "value": "Sandworm Team, Indrik Spider"}], "showSubtechniques": true},
{"techniqueID": "T1489", "score": 3, "metadata": [{"name": "Group", "value": "Lazarus Group, Wizard Spider, Indrik Spider"}], "showSubtechniques": false},
{"techniqueID": "T1018", "score": 25, "metadata": [{"name": "Group", "value": "Naikon, Ke3chang, Turla, Rocke, GALLIUM, Indrik Spider, APT3, menuPass, Silence, Chimera, Wizard Spider, Sandworm Team, APT32, Threat Group-3390, FIN6, FIN5, Deep Panda, BRONZE BUTLER, APT39, Leafminer, Operation Wocao, FIN8, APT29, Fox Kitten, Dragonfly"}], "showSubtechniques": false},
{"techniqueID": "T1484.001", "score": 1, "metadata": [{"name": "Group", "value": "Indrik Spider"}]},
{"techniqueID": "T1087.001", "score": 11, "metadata": [{"name": "Group", "value": "Chimera, Ke3chang, Threat Group-3390, APT32, APT1, Fox Kitten, Turla, admin@338, OilRig, APT3, Poseidon Group"}]},
{"techniqueID": "T1585", "score": 2, "metadata": [{"name": "Group", "value": "APT17, Fox Kitten"}], "showSubtechniques": true},
{"techniqueID": "T1021.002", "score": 19, "metadata": [{"name": "Group", "value": "Blue Mockingbird, Lazarus Group, Ke3chang, APT28, Turla, Orangeworm, APT3, Chimera, Wizard Spider, Sandworm Team, APT32, Threat Group-1314, APT41, Deep Panda, APT39, Operation Wocao, FIN8, APT29, Fox Kitten"}]},
{"techniqueID": "T1110", "score": 10, "metadata": [{"name": "Group", "value": "DarkVishnya, FIN5, Lazarus Group, APT39, APT28, Fox Kitten, Turla, OilRig, APT38, Dragonfly"}], "showSubtechniques": true},
{"techniqueID": "T1021.001", "score": 24, "metadata": [{"name": "Group", "value": "Blue Mockingbird, Lazarus Group, TEMP.Veles, OilRig, Axiom, Leviathan, Cobalt Group, APT3, Patchwork, menuPass, Silence, Chimera, Wizard Spider, FIN7, FIN6, APT41, FIN10, APT39, APT1, FIN8, APT29, Fox Kitten, Dragonfly, Kimsuky"}]},
{"techniqueID": "T1585.001", "score": 8, "metadata": [{"name": "Group", "value": "Lazarus Group, Cleaver, Sandworm Team, APT32, Fox Kitten, Magic Hound, Leviathan, Kimsuky"}]},
{"techniqueID": "T1546.008", "score": 6, "metadata": [{"name": "Group", "value": "Deep Panda, APT29, Fox Kitten, APT3, Axiom, APT41"}]},
{"techniqueID": "T1039", "score": 7, "metadata": [{"name": "Group", "value": "Chimera, BRONZE BUTLER, APT28, Fox Kitten, Gamaredon Group, Sowbug, menuPass"}], "showSubtechniques": false},
{"techniqueID": "T1530", "score": 1, "metadata": [{"name": "Group", "value": "Fox Kitten"}], "showSubtechniques": false},
{"techniqueID": "T1217", "score": 3, "metadata": [{"name": "Group", "value": "APT38, Chimera, Fox Kitten"}], "showSubtechniques": false},
{"techniqueID": "T1555.005", "score": 3, "metadata": [{"name": "Group", "value": "Threat Group-3390, Operation Wocao, Fox Kitten"}]},
{"techniqueID": "T1087.002", "score": 16, "metadata": [{"name": "Group", "value": "Lazarus Group, Chimera, Wizard Spider, BRONZE BUTLER, Ke3chang, Sandworm Team, Operation Wocao, APT29, MuddyWater, Fox Kitten, Turla, OilRig, FIN6, Poseidon Group, Dragonfly, menuPass"}]},
{"techniqueID": "T1021.005", "score": 4, "metadata": [{"name": "Group", "value": "Gamaredon Group, GCMAN, FIN7, Fox Kitten"}]},
{"techniqueID": "T1213", "score": 5, "metadata": [{"name": "Group", "value": "APT28, APT29, Fox Kitten, Turla, FIN6"}], "showSubtechniques": true},
{"techniqueID": "T1115", "score": 3, "metadata": [{"name": "Group", "value": "Operation Wocao, APT38, APT39"}], "showSubtechniques": false},
{"techniqueID": "T1111", "score": 3, "metadata": [{"name": "Group", "value": "Operation Wocao, Chimera, Kimsuky"}], "showSubtechniques": false},
{"techniqueID": "T1027.005", "score": 8, "metadata": [{"name": "Group", "value": "Deep Panda, Operation Wocao, GALLIUM, TEMP.Veles, Turla, OilRig, APT3, Patchwork"}]},
{"techniqueID": "T1003.006", "score": 2, "metadata": [{"name": "Group", "value": "Operation Wocao, APT29"}]},
{"techniqueID": "T1570", "score": 8, "metadata": [{"name": "Group", "value": "Chimera, Wizard Spider, Sandworm Team, APT32, Operation Wocao, GALLIUM, Turla, FIN10"}], "showSubtechniques": false},
{"techniqueID": "T1055", "score": 11, "metadata": [{"name": "Group", "value": "Silence, Cobalt Group, APT37, Operation Wocao, PLATINUM, APT32, Sharpshooter, Turla, Honeybee, APT41, Kimsuky"}], "showSubtechniques": true},
{"techniqueID": "T1569.002", "score": 12, "metadata": [{"name": "Group", "value": "Blue Mockingbird, Silence, Chimera, Wizard Spider, APT39, APT38, Ke3chang, Operation Wocao, APT32, FIN6, Honeybee, APT41"}]},
{"techniqueID": "T1001", "score": 1, "metadata": [{"name": "Group", "value": "Operation Wocao"}], "showSubtechniques": true},
{"techniqueID": "T1558.003", "score": 4, "metadata": [{"name": "Group", "value": "FIN7, Operation Wocao, APT29, Wizard Spider"}]},
{"techniqueID": "T1573.002", "score": 6, "metadata": [{"name": "Group", "value": "Cobalt Group, Operation Wocao, FIN8, Tropic Trooper, OilRig, FIN6"}]},
{"techniqueID": "T1112", "score": 17, "metadata": [{"name": "Group", "value": "Blue Mockingbird, Silence, Patchwork, Wizard Spider, APT38, Threat Group-3390, Operation Wocao, APT19, FIN8, APT32, Turla, Gamaredon Group, Honeybee, APT41, Dragonfly, Kimsuky, Gorgon Group"}], "showSubtechniques": false},
{"techniqueID": "T1113", "score": 13, "metadata": [{"name": "Group", "value": "GOLD SOUTHFIELD, Silence, BRONZE BUTLER, APT39, FIN7, Group5, APT28, Dark Caracal, MuddyWater, OilRig, Gamaredon Group, Magic Hound, Dragonfly"}], "showSubtechniques": false},
{"techniqueID": "T1199", "score": 6, "metadata": [{"name": "Group", "value": "GOLD SOUTHFIELD, Threat Group-3390, Sandworm Team, APT28, APT29, menuPass"}], "showSubtechniques": false},
{"techniqueID": "T1566", "score": 2, "metadata": [{"name": "Group", "value": "GOLD SOUTHFIELD, Axiom"}], "showSubtechniques": true},
{"techniqueID": "T1195.002", "score": 7, "metadata": [{"name": "Group", "value": "GOLD SOUTHFIELD, Cobalt Group, Sandworm Team, Threat Group-3390, APT29, APT41, Dragonfly"}]},
{"techniqueID": "T1550.002", "score": 7, "metadata": [{"name": "Group", "value": "Chimera, Night Dragon, APT1, APT32, GALLIUM, APT28, Kimsuky"}]},
{"techniqueID": "T1110.004", "score": 1, "metadata": [{"name": "Group", "value": "Chimera"}]},
{"techniqueID": "T1070.006", "score": 9, "metadata": [{"name": "Group", "value": "Lazarus Group, Rocke, Chimera, APT32, APT28, APT29, TEMP.Veles, APT38, Kimsuky"}]},
{"techniqueID": "T1482", "score": 3, "metadata": [{"name": "Group", "value": "FIN8, APT29, Chimera"}], "showSubtechniques": false},
{"techniqueID": "T1074.002", "score": 9, "metadata": [{"name": "Group", "value": "Chimera, Night Dragon, Threat Group-3390, APT28, FIN8, APT29, FIN6, Leviathan, menuPass"}]},
{"techniqueID": "T1589.001", "score": 5, "metadata": [{"name": "Group", "value": "Chimera, APT28, APT29, Magic Hound, Leviathan"}]},
{"techniqueID": "T1213.002", "score": 3, "metadata": [{"name": "Group", "value": "APT28, Chimera, Ke3chang"}]},
{"techniqueID": "T1021.006", "score": 4, "metadata": [{"name": "Group", "value": "Threat Group-3390, APT29, Chimera, Wizard Spider"}]},
{"techniqueID": "T1114.001", "score": 3, "metadata": [{"name": "Group", "value": "APT1, Chimera, Magic Hound"}]},
{"techniqueID": "T1556.001", "score": 1, "metadata": [{"name": "Group", "value": "Chimera"}]},
{"techniqueID": "T1201", "score": 3, "metadata": [{"name": "Group", "value": "Turla, OilRig, Chimera"}], "showSubtechniques": false},
{"techniqueID": "T1036.001", "score": 2, "metadata": [{"name": "Group", "value": "Windshift, APT37"}]},
{"techniqueID": "T1134", "score": 2, "metadata": [{"name": "Group", "value": "Blue Mockingbird, FIN6"}], "showSubtechniques": true},
{"techniqueID": "T1574.012", "score": 1, "metadata": [{"name": "Group", "value": "Blue Mockingbird"}]},
{"techniqueID": "T1027.004", "score": 3, "metadata": [{"name": "Group", "value": "Rocke, Gamaredon Group, MuddyWater"}]},
{"techniqueID": "T1571", "score": 12, "metadata": [{"name": "Group", "value": "DarkVishnya, Silence, Rocke, Lazarus Group, FIN7, Sandworm Team, APT32, TEMP.Veles, APT-C-36, Magic Hound, WIRTE, APT33"}], "showSubtechniques": false},
{"techniqueID": "T1574.006", "score": 2, "metadata": [{"name": "Group", "value": "APT41, Rocke"}]},
{"techniqueID": "T1102.001", "score": 5, "metadata": [{"name": "Group", "value": "Rocke, BRONZE BUTLER, RTM, Patchwork, APT41"}]},
{"techniqueID": "T1053.003", "score": 2, "metadata": [{"name": "Group", "value": "APT38, Rocke"}]},
{"techniqueID": "T1037", "score": 1, "metadata": [{"name": "Group", "value": "Rocke"}], "showSubtechniques": true},
{"techniqueID": "T1055.002", "score": 2, "metadata": [{"name": "Group", "value": "Rocke, Gorgon Group"}]},
{"techniqueID": "T1200", "score": 1, "metadata": [{"name": "Group", "value": "DarkVishnya"}], "showSubtechniques": false},
{"techniqueID": "T1040", "score": 5, "metadata": [{"name": "Group", "value": "DarkVishnya, Sandworm Team, APT28, APT33, Kimsuky"}], "showSubtechniques": false},
{"techniqueID": "T1074", "score": 1, "metadata": [{"name": "Group", "value": "Wizard Spider"}], "showSubtechniques": true},
{"techniqueID": "T1588.003", "score": 3, "metadata": [{"name": "Group", "value": "Lazarus Group, BlackTech, Wizard Spider"}]},
{"techniqueID": "T1222.001", "score": 1, "metadata": [{"name": "Group", "value": "Wizard Spider"}]},
{"techniqueID": "T1048.003", "score": 8, "metadata": [{"name": "Group", "value": "Lazarus Group, Wizard Spider, APT32, FIN8, OilRig, FIN6, APT33, Thrip"}]},
{"techniqueID": "T1553.002", "score": 20, "metadata": [{"name": "Group", "value": "Lazarus Group, PROMETHIUM, Winnti Group, Leviathan, Honeybee, GALLIUM, Darkhotel, Molerats, Patchwork, menuPass, Silence, Wizard Spider, FIN7, FIN6, TA505, APT41, Suckfly, APT29, CopyKittens, Kimsuky"}]},
{"techniqueID": "T1557.001", "score": 2, "metadata": [{"name": "Group", "value": "Lazarus Group, Wizard Spider"}]},
{"techniqueID": "T1547.004", "score": 3, "metadata": [{"name": "Group", "value": "Turla, Tropic Trooper, Wizard Spider"}]},
{"techniqueID": "T1003.002", "score": 7, "metadata": [{"name": "Group", "value": "Wizard Spider, Night Dragon, Ke3chang, Threat Group-3390, GALLIUM, Dragonfly, menuPass"}]},
{"techniqueID": "T1127.001", "score": 1, "metadata": [{"name": "Group", "value": "Frankenstein"}]},
{"techniqueID": "T1069.002", "score": 6, "metadata": [{"name": "Group", "value": "Ke3chang, APT29, Turla, OilRig, Dragonfly, Inception"}]},
{"techniqueID": "T1071.002", "score": 4, "metadata": [{"name": "Group", "value": "Honeybee, APT41, SilverTerrier, Kimsuky"}]},
{"techniqueID": "T1218.001", "score": 5, "metadata": [{"name": "Group", "value": "Silence, APT38, Dark Caracal, OilRig, APT41"}]},
{"techniqueID": "T1480.001", "score": 2, "metadata": [{"name": "Group", "value": "APT41, Equation"}]},
{"techniqueID": "T1197", "score": 4, "metadata": [{"name": "Group", "value": "Patchwork, APT41, Leviathan, APT39"}], "showSubtechniques": false},
{"techniqueID": "T1104", "score": 4, "metadata": [{"name": "Group", "value": "Lazarus Group, APT41, APT3, MuddyWater"}], "showSubtechniques": false},
{"techniqueID": "T1008", "score": 4, "metadata": [{"name": "Group", "value": "Lazarus Group, APT41, OilRig, FIN7"}], "showSubtechniques": false},
{"techniqueID": "T1542.003", "score": 3, "metadata": [{"name": "Group", "value": "Lazarus Group, APT41, APT28"}]},
{"techniqueID": "T1110.002", "score": 4, "metadata": [{"name": "Group", "value": "APT41, APT3, Dragonfly, FIN6"}]},
{"techniqueID": "T1534", "score": 4, "metadata": [{"name": "Group", "value": "Lazarus Group, Gamaredon Group, Kimsuky, Leviathan"}], "showSubtechniques": false},
{"techniqueID": "T1593.002", "score": 1, "metadata": [{"name": "Group", "value": "Kimsuky"}]},
{"techniqueID": "T1588.005", "score": 1, "metadata": [{"name": "Group", "value": "Kimsuky"}]},
{"techniqueID": "T1557", "score": 1, "metadata": [{"name": "Group", "value": "Kimsuky"}], "showSubtechniques": true},
{"techniqueID": "T1564.002", "score": 2, "metadata": [{"name": "Group", "value": "Dragonfly, Kimsuky"}]},
{"techniqueID": "T1593.001", "score": 2, "metadata": [{"name": "Group", "value": "Lazarus Group, Kimsuky"}]},
{"techniqueID": "T1098", "score": 5, "metadata": [{"name": "Group", "value": "Lazarus Group, Sandworm Team, APT3, Dragonfly, Kimsuky"}], "showSubtechniques": true},
{"techniqueID": "T1176", "score": 1, "metadata": [{"name": "Group", "value": "Kimsuky"}], "showSubtechniques": false},
{"techniqueID": "T1583.004", "score": 4, "metadata": [{"name": "Group", "value": "Sandworm Team, GALLIUM, Kimsuky, Lazarus Group"}]},
{"techniqueID": "T1546.001", "score": 1, "metadata": [{"name": "Group", "value": "Kimsuky"}]},
{"techniqueID": "T1055.012", "score": 5, "metadata": [{"name": "Group", "value": "Gorgon Group, Threat Group-3390, Patchwork, Kimsuky, menuPass"}]},
{"techniqueID": "T1587", "score": 1, "metadata": [{"name": "Group", "value": "Kimsuky"}], "showSubtechniques": true},
{"techniqueID": "T1591", "score": 2, "metadata": [{"name": "Group", "value": "Lazarus Group, Kimsuky"}], "showSubtechniques": true},
{"techniqueID": "T1071.003", "score": 5, "metadata": [{"name": "Group", "value": "SilverTerrier, APT32, APT28, Turla, Kimsuky"}]},
{"techniqueID": "T1036.003", "score": 4, "metadata": [{"name": "Group", "value": "APT32, GALLIUM, Lazarus Group, menuPass"}]},
{"techniqueID": "T1069", "score": 3, "metadata": [{"name": "Group", "value": "APT3, TA505, APT29"}], "showSubtechniques": true},
{"techniqueID": "T1553.005", "score": 2, "metadata": [{"name": "Group", "value": "APT29, TA505"}]},
{"techniqueID": "T1568.001", "score": 2, "metadata": [{"name": "Group", "value": "TA505, menuPass"}]},
{"techniqueID": "T1087.003", "score": 2, "metadata": [{"name": "Group", "value": "Sandworm Team, TA505"}]},
{"techniqueID": "T1072", "score": 3, "metadata": [{"name": "Group", "value": "APT32, Silence, Threat Group-1314"}], "showSubtechniques": false},
{"techniqueID": "T1125", "score": 2, "metadata": [{"name": "Group", "value": "Silence, FIN7"}], "showSubtechniques": false},
{"techniqueID": "T1546.012", "score": 1, "metadata": [{"name": "Group", "value": "TEMP.Veles"}]},
{"techniqueID": "T1553.006", "score": 2, "metadata": [{"name": "Group", "value": "Turla, APT39"}]},
{"techniqueID": "T1546.010", "score": 1, "metadata": [{"name": "Group", "value": "APT39"}]},
{"techniqueID": "T1056", "score": 1, "metadata": [{"name": "Group", "value": "APT39"}], "showSubtechniques": true},
{"techniqueID": "T1547.009", "score": 7, "metadata": [{"name": "Group", "value": "Lazarus Group, APT39, APT29, Darkhotel, Leviathan, Dragonfly, Gorgon Group"}]},
{"techniqueID": "T1564.008", "score": 1, "metadata": [{"name": "Group", "value": "FIN4"}]},
{"techniqueID": "T1056.002", "score": 1, "metadata": [{"name": "Group", "value": "FIN4"}]},
{"techniqueID": "T1561.002", "score": 4, "metadata": [{"name": "Group", "value": "Sandworm Team, Lazarus Group, APT38, APT37"}]},
{"techniqueID": "T1562.003", "score": 1, "metadata": [{"name": "Group", "value": "APT38"}]},
{"techniqueID": "T1529", "score": 3, "metadata": [{"name": "Group", "value": "Lazarus Group, APT38, APT37"}], "showSubtechniques": false},
{"techniqueID": "T1565.002", "score": 1, "metadata": [{"name": "Group", "value": "APT38"}]},
{"techniqueID": "T1485", "score": 4, "metadata": [{"name": "Group", "value": "Sandworm Team, Lazarus Group, APT38, Gamaredon Group"}], "showSubtechniques": false},
{"techniqueID": "T1565.003", "score": 1, "metadata": [{"name": "Group", "value": "APT38"}]},
{"techniqueID": "T1565.001", "score": 1, "metadata": [{"name": "Group", "value": "APT38"}]},
{"techniqueID": "T1573", "score": 2, "metadata": [{"name": "Group", "value": "Tropic Trooper, APT29"}], "showSubtechniques": true},
{"techniqueID": "T1560", "score": 11, "metadata": [{"name": "Group", "value": "Lazarus Group, Patchwork, Ke3chang, APT32, APT28, FIN6, Axiom, Leviathan, Honeybee, Dragonfly, menuPass"}], "showSubtechniques": true},
{"techniqueID": "T1546.009", "score": 1, "metadata": [{"name": "Group", "value": "Honeybee"}]},
{"techniqueID": "T1003.004", "score": 8, "metadata": [{"name": "Group", "value": "Ke3chang, Leafminer, Threat Group-3390, MuddyWater, OilRig, APT33, Dragonfly, menuPass"}]},
{"techniqueID": "T1003.005", "score": 4, "metadata": [{"name": "Group", "value": "MuddyWater, OilRig, APT33, Leafminer"}]},
{"techniqueID": "T1055.013", "score": 1, "metadata": [{"name": "Group", "value": "Leafminer"}]},
{"techniqueID": "T1218.008", "score": 1, "metadata": [{"name": "Group", "value": "Cobalt Group"}]},
{"techniqueID": "T1037.001", "score": 2, "metadata": [{"name": "Group", "value": "APT28, Cobalt Group"}]},
{"techniqueID": "T1218.003", "score": 2, "metadata": [{"name": "Group", "value": "Cobalt Group, MuddyWater"}]},
{"techniqueID": "T1187", "score": 2, "metadata": [{"name": "Group", "value": "Dragonfly, DarkHydrus"}], "showSubtechniques": false},
{"techniqueID": "T1056.004", "score": 1, "metadata": [{"name": "Group", "value": "PLATINUM"}]},
{"techniqueID": "T1102.003", "score": 1, "metadata": [{"name": "Group", "value": "Leviathan"}]},
{"techniqueID": "T1586.001", "score": 1, "metadata": [{"name": "Group", "value": "Leviathan"}]},
{"techniqueID": "T1559.001", "score": 2, "metadata": [{"name": "Group", "value": "Gamaredon Group, MuddyWater"}]},
{"techniqueID": "T1137.001", "score": 1, "metadata": [{"name": "Group", "value": "MuddyWater"}]},
{"techniqueID": "T1078.004", "score": 4, "metadata": [{"name": "Group", "value": "APT28, APT33, Ke3chang, APT29"}]},
{"techniqueID": "T1552.006", "score": 1, "metadata": [{"name": "Group", "value": "APT33"}]},
{"techniqueID": "T1123", "score": 1, "metadata": [{"name": "Group", "value": "APT37"}], "showSubtechniques": false},
{"techniqueID": "T1055.004", "score": 1, "metadata": [{"name": "Group", "value": "FIN8"}]},
{"techniqueID": "T1134.001", "score": 2, "metadata": [{"name": "Group", "value": "APT28, FIN8"}]},
{"techniqueID": "T1205.001", "score": 1, "metadata": [{"name": "Group", "value": "PROMETHIUM"}]},
{"techniqueID": "T1587.003", "score": 2, "metadata": [{"name": "Group", "value": "PROMETHIUM, APT29"}]},
{"techniqueID": "T1587.002", "score": 2, "metadata": [{"name": "Group", "value": "Patchwork, PROMETHIUM"}]},
{"techniqueID": "T1589", "score": 2, "metadata": [{"name": "Group", "value": "APT32, Magic Hound"}], "showSubtechniques": true},
{"techniqueID": "T1098.002", "score": 3, "metadata": [{"name": "Group", "value": "APT28, APT29, Magic Hound"}]},
{"techniqueID": "T1080", "score": 3, "metadata": [{"name": "Group", "value": "Darkhotel, Gamaredon Group, BRONZE BUTLER"}], "showSubtechniques": false},
{"techniqueID": "T1053.002", "score": 3, "metadata": [{"name": "Group", "value": "Threat Group-3390, APT18, BRONZE BUTLER"}]},
{"techniqueID": "T1550.003", "score": 3, "metadata": [{"name": "Group", "value": "APT32, APT29, BRONZE BUTLER"}]},
{"techniqueID": "T1552.002", "score": 1, "metadata": [{"name": "Group", "value": "APT32"}]},
{"techniqueID": "T1216.001", "score": 1, "metadata": [{"name": "Group", "value": "APT32"}]},
{"techniqueID": "T1137", "score": 2, "metadata": [{"name": "Group", "value": "APT32, Gamaredon Group"}], "showSubtechniques": true},
{"techniqueID": "T1564.004", "score": 1, "metadata": [{"name": "Group", "value": "APT32"}]},
{"techniqueID": "T1555.004", "score": 3, "metadata": [{"name": "Group", "value": "Turla, OilRig, Stealth Falcon"}]},
{"techniqueID": "T1137.004", "score": 1, "metadata": [{"name": "Group", "value": "OilRig"}]},
{"techniqueID": "T1025", "score": 3, "metadata": [{"name": "Group", "value": "Turla, APT28, Gamaredon Group"}], "showSubtechniques": false},
{"techniqueID": "T1491.001", "score": 2, "metadata": [{"name": "Group", "value": "Lazarus Group, Gamaredon Group"}]},
{"techniqueID": "T1016.001", "score": 3, "metadata": [{"name": "Group", "value": "Turla, Gamaredon Group, APT29"}]},
{"techniqueID": "T1546.011", "score": 1, "metadata": [{"name": "Group", "value": "FIN7"}]},
{"techniqueID": "T1497.002", "score": 2, "metadata": [{"name": "Group", "value": "Darkhotel, FIN7"}]},
{"techniqueID": "T1564.005", "score": 2, "metadata": [{"name": "Group", "value": "Equation, Strider"}]},
{"techniqueID": "T1556.002", "score": 1, "metadata": [{"name": "Group", "value": "Strider"}]},
{"techniqueID": "T1591.002", "score": 2, "metadata": [{"name": "Group", "value": "Sandworm Team, Dragonfly"}]},
{"techniqueID": "T1499", "score": 1, "metadata": [{"name": "Group", "value": "Sandworm Team"}], "showSubtechniques": false},
{"techniqueID": "T1562.002", "score": 3, "metadata": [{"name": "Group", "value": "Sandworm Team, APT29, Threat Group-3390"}]},
{"techniqueID": "T1584.005", "score": 2, "metadata": [{"name": "Group", "value": "Sandworm Team, Axiom"}]},
{"techniqueID": "T1505.001", "score": 1, "metadata": [{"name": "Group", "value": "Sandworm Team"}]},
{"techniqueID": "T1588.006", "score": 1, "metadata": [{"name": "Group", "value": "Sandworm Team"}]},
{"techniqueID": "T1593", "score": 1, "metadata": [{"name": "Group", "value": "Sandworm Team"}], "showSubtechniques": true},
{"techniqueID": "T1491.002", "score": 1, "metadata": [{"name": "Group", "value": "Sandworm Team"}]},
{"techniqueID": "T1590.001", "score": 1, "metadata": [{"name": "Group", "value": "Sandworm Team"}]},
{"techniqueID": "T1620", "score": 1, "metadata": [{"name": "Group", "value": "Lazarus Group"}], "showSubtechniques": false},
{"techniqueID": "T1574.013", "score": 1, "metadata": [{"name": "Group", "value": "Lazarus Group"}]},
{"techniqueID": "T1202", "score": 1, "metadata": [{"name": "Group", "value": "Lazarus Group"}], "showSubtechniques": false},
{"techniqueID": "T1218", "score": 1, "metadata": [{"name": "Group", "value": "Lazarus Group"}], "showSubtechniques": true},
{"techniqueID": "T1560.002", "score": 2, "metadata": [{"name": "Group", "value": "Threat Group-3390, Lazarus Group"}]},
{"techniqueID": "T1561.001", "score": 1, "metadata": [{"name": "Group", "value": "Lazarus Group"}]},
{"techniqueID": "T1614.001", "score": 2, "metadata": [{"name": "Group", "value": "Lazarus Group, Ke3chang"}]},
{"techniqueID": "T1010", "score": 1, "metadata": [{"name": "Group", "value": "Lazarus Group"}], "showSubtechniques": false},
{"techniqueID": "T1608.002", "score": 2, "metadata": [{"name": "Group", "value": "Threat Group-3390, Lazarus Group"}]},
{"techniqueID": "T1591.004", "score": 1, "metadata": [{"name": "Group", "value": "Lazarus Group"}]},
{"techniqueID": "T1134.002", "score": 2, "metadata": [{"name": "Group", "value": "Turla, Lazarus Group"}]},
{"techniqueID": "T1070", "score": 2, "metadata": [{"name": "Group", "value": "Lazarus Group, APT29"}], "showSubtechniques": true},
{"techniqueID": "T1030", "score": 2, "metadata": [{"name": "Group", "value": "Threat Group-3390, APT28"}], "showSubtechniques": false},
{"techniqueID": "T1070.005", "score": 1, "metadata": [{"name": "Group", "value": "Threat Group-3390"}]},
{"techniqueID": "T1542.002", "score": 1, "metadata": [{"name": "Group", "value": "Equation"}]},
{"techniqueID": "T1137.006", "score": 1, "metadata": [{"name": "Group", "value": "Naikon"}]},
{"techniqueID": "T1001.002", "score": 2, "metadata": [{"name": "Group", "value": "APT29, Axiom"}]},
{"techniqueID": "T1550.004", "score": 1, "metadata": [{"name": "Group", "value": "APT29"}]},
{"techniqueID": "T1621", "score": 1, "metadata": [{"name": "Group", "value": "APT29"}], "showSubtechniques": false},
{"techniqueID": "T1098.003", "score": 1, "metadata": [{"name": "Group", "value": "APT29"}]},
{"techniqueID": "T1087.004", "score": 1, "metadata": [{"name": "Group", "value": "APT29"}]},
{"techniqueID": "T1136.003", "score": 1, "metadata": [{"name": "Group", "value": "APT29"}]},
{"techniqueID": "T1213.003", "score": 1, "metadata": [{"name": "Group", "value": "APT29"}]},
{"techniqueID": "T1550.001", "score": 2, "metadata": [{"name": "Group", "value": "APT28, APT29"}]},
{"techniqueID": "T1606.002", "score": 1, "metadata": [{"name": "Group", "value": "APT29"}]},
{"techniqueID": "T1087", "score": 1, "metadata": [{"name": "Group", "value": "APT29"}], "showSubtechniques": true},
{"techniqueID": "T1098.005", "score": 1, "metadata": [{"name": "Group", "value": "APT29"}]},
{"techniqueID": "T1606.001", "score": 1, "metadata": [{"name": "Group", "value": "APT29"}]},
{"techniqueID": "T1090.004", "score": 1, "metadata": [{"name": "Group", "value": "APT29"}]},
{"techniqueID": "T1550", "score": 1, "metadata": [{"name": "Group", "value": "APT29"}], "showSubtechniques": true},
{"techniqueID": "T1027.006", "score": 1, "metadata": [{"name": "Group", "value": "APT29"}]},
{"techniqueID": "T1484.002", "score": 1, "metadata": [{"name": "Group", "value": "APT29"}]},
{"techniqueID": "T1098.001", "score": 1, "metadata": [{"name": "Group", "value": "APT29"}]},
{"techniqueID": "T1048.002", "score": 2, "metadata": [{"name": "Group", "value": "APT28, APT29"}]},
{"techniqueID": "T1497", "score": 1, "metadata": [{"name": "Group", "value": "Darkhotel"}], "showSubtechniques": true},
{"techniqueID": "T1584.006", "score": 1, "metadata": [{"name": "Group", "value": "Turla"}]},
{"techniqueID": "T1546.013", "score": 1, "metadata": [{"name": "Group", "value": "Turla"}]},
{"techniqueID": "T1584.003", "score": 1, "metadata": [{"name": "Group", "value": "Turla"}]},
{"techniqueID": "T1615", "score": 1, "metadata": [{"name": "Group", "value": "Turla"}], "showSubtechniques": false},
{"techniqueID": "T1211", "score": 1, "metadata": [{"name": "Group", "value": "APT28"}], "showSubtechniques": false},
{"techniqueID": "T1137.002", "score": 1, "metadata": [{"name": "Group", "value": "APT28"}]},
{"techniqueID": "T1567", "score": 1, "metadata": [{"name": "Group", "value": "APT28"}], "showSubtechniques": true},
{"techniqueID": "T1546.015", "score": 1, "metadata": [{"name": "Group", "value": "APT28"}]},
{"techniqueID": "T1092", "score": 1, "metadata": [{"name": "Group", "value": "APT28"}], "showSubtechniques": false},
{"techniqueID": "T1001.001", "score": 1, "metadata": [{"name": "Group", "value": "APT28"}]},
{"techniqueID": "T1498", "score": 1, "metadata": [{"name": "Group", "value": "APT28"}], "showSubtechniques": false},
{"techniqueID": "T1528", "score": 1, "metadata": [{"name": "Group", "value": "APT28"}], "showSubtechniques": false},
{"techniqueID": "T1110.001", "score": 1, "metadata": [{"name": "Group", "value": "APT28"}]},
{"techniqueID": "T1568.003", "score": 1, "metadata": [{"name": "Group", "value": "APT12"}]},
{"techniqueID": "T1558.001", "score": 1, "metadata": [{"name": "Group", "value": "Ke3chang"}]},
{"techniqueID": "T1557.002", "score": 1, "metadata": [{"name": "Group", "value": "Cleaver"}]},
{"techniqueID": "T1583.002", "score": 1, "metadata": [{"name": "Group", "value": "Axiom"}]},
{"techniqueID": "T1563.002", "score": 1, "metadata": [{"name": "Group", "value": "Axiom"}]},
{"techniqueID": "T1553", "score": 1, "metadata": [{"name": "Group", "value": "Axiom"}], "showSubtechniques": true},
{"techniqueID": "T1562", "showSubtechniques": true},
{"techniqueID": "T1588", "showSubtechniques": true},
{"techniqueID": "T1595", "showSubtechniques": true},
{"techniqueID": "T1574", "showSubtechniques": true},
{"techniqueID": "T1053", "showSubtechniques": true},
{"techniqueID": "T1204", "showSubtechniques": true},
{"techniqueID": "T1583", "showSubtechniques": true},
{"techniqueID": "T1547", "showSubtechniques": true},
{"techniqueID": "T1552", "showSubtechniques": true},
{"techniqueID": "T1222", "showSubtechniques": true},
{"techniqueID": "T1543", "showSubtechniques": true},
{"techniqueID": "T1021", "showSubtechniques": true},
{"techniqueID": "T1592", "showSubtechniques": true},
{"techniqueID": "T1586", "showSubtechniques": true},
{"techniqueID": "T1505", "showSubtechniques": true},
{"techniqueID": "T1584", "showSubtechniques": true},
{"techniqueID": "T1564", "showSubtechniques": true},
{"techniqueID": "T1546", "showSubtechniques": true},
{"techniqueID": "T1052", "showSubtechniques": true},
{"techniqueID": "T1132", "showSubtechniques": true},
{"techniqueID": "T1559", "showSubtechniques": true},
{"techniqueID": "T1548", "showSubtechniques": true},
{"techniqueID": "T1484", "showSubtechniques": true},
{"techniqueID": "T1569", "showSubtechniques": true},
{"techniqueID": "T1558", "showSubtechniques": true},
{"techniqueID": "T1195", "showSubtechniques": true},
{"techniqueID": "T1556", "showSubtechniques": true},
{"techniqueID": "T1048", "showSubtechniques": true},
{"techniqueID": "T1127", "showSubtechniques": true},
{"techniqueID": "T1480", "showSubtechniques": true},
{"techniqueID": "T1542", "showSubtechniques": true},
{"techniqueID": "T1561", "showSubtechniques": true},
{"techniqueID": "T1565", "showSubtechniques": true},
{"techniqueID": "T1205", "showSubtechniques": true},
{"techniqueID": "T1216", "showSubtechniques": true},
{"techniqueID": "T1491", "showSubtechniques": true},
{"techniqueID": "T1614", "showSubtechniques": true},
{"techniqueID": "T1606", "showSubtechniques": true},
{"techniqueID": "T1563", "showSubtechniques": true}], "showTacticRowBackground": false, "tacticRowBackground": "#dddddd", "selectTechniquesAcrossTactics": true, "gradient": {"colors": ["#ffcece", "#ff0000"], "minValue": 0, "maxValue": 71},
"legendItems": [{"label": "Tech. not often used", "color": "#ffcece"},
{"label": "Tech. used frequently", "color": "#ff0000"},
{"label": "Groups overlay: tech. in group + overlay", "color": "#f9a825"},
{"label": "Groups overlay: tech. in overlay", "color": "#ffee58"},
{"label": "Src. of tech. is only software", "color": "#0d47a1 "},
{"label": "Src. of tech. is group(s)/overlay + software", "color": "#64b5f6 "}]}